[instance-0:12555] plm:rsh: Warning: setpgid(12574,12574) failed in parent with errno=Permission denied(13)
--------------------------------------------------------------------------
Primary job  terminated normally, but 1 process returned
a non-zero exit code. Per user-direction, the job has been aborted.
--------------------------------------------------------------------------
--------------------------------------------------------------------------
mpirun detected that one or more processes exited with non-zero status, thus causing
the job to be terminated. The first process to do so was:

  Process name: [[16659,1],0]
  Exit code:    1
--------------------------------------------------------------------------
