
Program received signal SIGSEGV: Segmentation fault - invalid memory reference.

Backtrace for this error:

Program received signal SIGSEGV: Segmentation fault - invalid memory reference.

Program received signal SIGSEGV: Segmentation fault - invalid memory reference.

Program received signal SIGSEGV: Segmentation fault - invalid memory reference.

Program received signal SIGSEGV: Segmentation fault - invalid memory reference.

Program received signal SIGSEGV: Segmentation fault - invalid memory reference.

Program received signal SIGSEGV: Segmentation fault - invalid memory reference.

Program received signal SIGSEGV: Segmentation fault - invalid memory reference.

Program received signal SIGSEGV: Segmentation fault - invalid memory reference.

Program received signal SIGSEGV: Segmentation fault - invalid memory reference.

Program received signal SIGSEGV: Segmentation fault - invalid memory reference.

Backtrace for this error:

Program received signal SIGSEGV: Segmentation fault - invalid memory reference.

Program received signal SIGSEGV: Segmentation fault - invalid memory reference.

Program received signal SIGSEGV: Segmentation fault - invalid memory reference.

Program received signal SIGSEGV: Segmentation fault - invalid memory reference.

Program received signal SIGSEGV: Segmentation fault - invalid memory reference.

Program received signal SIGSEGV: Segmentation fault - invalid memory reference.

Program received signal SIGSEGV: Segmentation fault - invalid memory reference.

Backtrace for this error:

Program received signal SIGSEGV: Segmentation fault - invalid memory reference.

Program received signal SIGSEGV: Segmentation fault - invalid memory reference.

Program received signal SIGSEGV: Segmentation fault - invalid memory reference.

Program received signal SIGSEGV: Segmentation fault - invalid memory reference.

Program received signal SIGSEGV: Segmentation fault - invalid memory reference.

Backtrace for this error:

Program received signal SIGSEGV: Segmentation fault - invalid memory reference.

Program received signal SIGSEGV: Segmentation fault - invalid memory reference.

Backtrace for this error:

Backtrace for this error:

Program received signal SIGSEGV: Segmentation fault - invalid memory reference.

Backtrace for this error:

Program received signal SIGSEGV: Segmentation fault - invalid memory reference.

Backtrace for this error:

Backtrace for this error:

Backtrace for this error:

Program received signal SIGSEGV: Segmentation fault - invalid memory reference.

Program received signal SIGSEGV: Segmentation fault - invalid memory reference.

Backtrace for this error:

Backtrace for this error:

Program received signal SIGSEGV: Segmentation fault - invalid memory reference.

Program received signal SIGSEGV: Segmentation fault - invalid memory reference.

Backtrace for this error:

Backtrace for this error:

Backtrace for this error:

Backtrace for this error:

Backtrace for this error:

Backtrace for this error:

Backtrace for this error:

Backtrace for this error:

Backtrace for this error:

Backtrace for this error:

Program received signal SIGSEGV: Segmentation fault - invalid memory reference.

Backtrace for this error:

Backtrace for this error:

Backtrace for this error:

Backtrace for this error:

Backtrace for this error:

Backtrace for this error:

Backtrace for this error:

Backtrace for this error:

Backtrace for this error:

Backtrace for this error:
#0  0x7f1e0a2fb8da
#1  0x7f1e0a2faae3
#2  0x7f1e09f5283f
#3  0x7f1e0a077b0d
#4  0x557f657b8560
#5  0x557f657c4a63
#6  0x557f657b740e
#7  0x7f1e09f3f09a
#8  0x557f657b7449
#9  0xffffffffffffffff
#0  0x7fa06d3098da
#1  0x7fa06d308ae3
#2  0x7fa06cf6083f
#3  0x7fa06d085b0d
#4  0x561f6979f560
#5  0x561f697aba63
--------------------------------------------------------------------------
Primary job  terminated normally, but 1 process returned
a non-zero exit code. Per user-direction, the job has been aborted.
--------------------------------------------------------------------------
#0  0x7fab0abfa8da
#6  0x561f6979e40e
#1  0x7fab0abf9ae3
#7  0x7fa06cf4d09a
#0  0x7f0c138658da
#2  0x7fab0a85183f
#8  0x561f6979e449
#1  0x7f0c13864ae3
#0  0x7f63be6d48da
#0  0x7f5cd79ac8da
#1  0x7f63be6d3ae3
#3  0x7fab0a976b0d
#9  0xffffffffffffffff
#2  0x7f0c134bc83f
#0  0x7f8e41b148da
#0  0x7f40b081a8da
#3  0x7f0c135e1b0d
#0  0x7ff5ea32b8da
#1  0x7f5cd79abae3
#2  0x7f63be32b83f
#0  0x7ff37924f8da
#4  0x558c285e3560
#0  0x7fcebf5368da
#5  0x558c285efa63
#0  0x7f9dfa6c38da
#1  0x7f8e41b13ae3
#0  0x7f57795258da
#0  0x7fe78d2c28da
#1  0x7f40b0819ae3
#0  0x7fbc597c18da
#0  0x7fd6acc948da
#4  0x562e2671f560
#0  0x7f7b71b0b8da
#1  0x7ff5ea32aae3
#2  0x7f5cd760383f
#3  0x7f63be450b0d
#1  0x7ff37924eae3
#0  0x7f0151c5a8da
#2  0x7ff378ea683f
#1  0x7f0151c59ae3
#0  0x7fb70b7f28da
#0  0x7f7884d408da
#1  0x7fcebf535ae3
#6  0x558c285e240e
#1  0x7f9dfa6c2ae3
#0  0x7f68178818da
#2  0x7f8e4176b83f
#1  0x7f5779524ae3
#1  0x7fe78d2c1ae3
#2  0x7f40b047183f
#1  0x7fbc597c0ae3
#1  0x7fd6acc93ae3
#5  0x562e2672ba63
#0  0x7f3fa4d838da
#0  0x7f03a19c58da
#1  0x7f7b71b0aae3
#2  0x7ff5e9f8283f
#3  0x7f5cd7728b0d
#4  0x5618a9406560
#1  0x7f7884d3fae3
#2  0x7fcebf18d83f
#7  0x7fab0a83e09a
#2  0x7f9dfa31a83f
#0  0x7f0c578eb8da
#1  0x7f6817880ae3
#0  0x7f9e74d908da
#3  0x7f8e41890b0d
#2  0x7f577917c83f
#2  0x7fe78cf1983f
#3  0x7f40b0596b0d
#2  0x7fbc5941883f
#2  0x7fd6ac8eb83f
#6  0x562e2671e40e
#1  0x7f3fa4d82ae3
#1  0x7f03a19c4ae3
#2  0x7f7b7176283f
#3  0x7ff5ea0a7b0d
#4  0x5613dc494560
#5  0x5618a9412a63
#3  0x7ff378fcbb0d
#2  0x7f01518b183f
#1  0x7fb70b7f1ae3
#2  0x7f788499783f
#3  0x7fcebf2b2b0d
#8  0x558c285e2449
#3  0x7f9dfa43fb0d
#1  0x7f0c578eaae3
#0  0x7ff82ab1f8da
#2  0x7f68174d883f
#1  0x7f9e74d8fae3
#4  0x560fbbfa5560
#3  0x7f57792a1b0d
#3  0x7fe78d03eb0d
#4  0x560eb0677560
#3  0x7fbc5953db0d
#3  0x7fd6aca10b0d
#7  0x7f0c134a909a
#2  0x7f3fa49da83f
#0  0x7fceaa6898da
#2  0x7f03a161c83f
#3  0x7f7b71887b0d
#4  0x55679329e560
#5  0x5613dc4a0a63
#6  0x5618a940540e
#4  0x5654dd028560
#3  0x7f01519d6b0d
#2  0x7fb70b44983f
#0  0x7f73ab3858da
#5  0x5567932aaa63
#6  0x5613dc49340e
#7  0x7f63be31809a
#5  0x5654dd034a63
#4  0x55c257e8f560
#3  0x7fb70b56eb0d
#1  0x7f73ab384ae3
#0  0x7f60f61c88da
#3  0x7f7884abcb0d
#4  0x561ab742b560
#9  0xffffffffffffffff
#4  0x55a8f5065560
#2  0x7f0c5754283f
#1  0x7ff82ab1eae3
#3  0x7f68175fdb0d
#2  0x7f9e749e783f
#5  0x560fbbfb1a63
#4  0x55605c4d4560
#4  0x558fcf567560
#5  0x560eb0683a63
#4  0x55671dd30560
#4  0x558355adb560
#8  0x562e2671e449
#3  0x7f3fa4affb0d
#1  0x7fceaa688ae3
#3  0x7f03a1741b0d
#4  0x5617a1fff560
#6  0x55679329d40e
#7  0x7f5cd75f009a
#8  0x5618a9405449
#6  0x5654dd02740e
#5  0x55c257e9ba63
#4  0x556c22fb1560
#2  0x7f73aafdc83f
#1  0x7f60f61c7ae3
#4  0x557ef83b2560
#5  0x561ab7437a63
#5  0x55a8f5071a63
#3  0x7f0c57667b0d
#2  0x7ff82a77683f
#4  0x56051ecb1560
#3  0x7f9e74b0cb0d
#6  0x560fbbfa440e
#5  0x55605c4e0a63
#5  0x558fcf573a63
#6  0x560eb067640e
#5  0x55671dd3ca63
#5  0x558355ae7a63
#9  0xffffffffffffffff
#4  0x56254b3da560
#2  0x7fceaa2e083f
#4  0x55b20841e560
#5  0x5617a200ba63
#2  0x7f60f5e1f83f
#5  0x557ef83bea63
#6  0x561ab742a40e
#6  0x55a8f506440e
#4  0x5592bc9b8560
#3  0x7ff82a89bb0d
#5  0x56051ecbda63
#4  0x55997bf3e560
#7  0x7f8e4175809a
#6  0x55605c4d340e
#6  0x558fcf56640e
#7  0x7f40b045e09a
#6  0x55671dd2f40e
#6  0x558355ada40e
#5  0x56254b3e6a63
#3  0x7fceaa405b0d
#5  0x55b20842aa63
#6  0x5617a1ffe40e
#7  0x7ff5e9f6f09a
#8  0x5613dc493449
#9  0xffffffffffffffff
#7  0x7ff378e9309a
#6  0x55c257e8e40e
#5  0x556c22fbda63
#3  0x7f73ab101b0d
#8  0x5654dd027449
#7  0x7f015189e09a
#6  0x556c22fb040e
#4  0x55e6f2b6e560
#3  0x7f60f5f44b0d
#6  0x557ef83b140e
#7  0x7fcebf17a09a
#7  0x7f9dfa30709a
#5  0x5592bc9c4a63
#4  0x55e68558a560
#6  0x56051ecb040e
#5  0x55997bf4aa63
#8  0x560fbbfa4449
#7  0x7f577916909a
#7  0x7fe78cf0609a
#8  0x560eb0676449
#7  0x7fbc5940509a
#7  0x7fd6ac8d809a
#6  0x56254b3d940e
#4  0x55f313025560
#6  0x55b20841d40e
#7  0x7f7b7174f09a
#8  0x55679329d449
#9  0xffffffffffffffff
#8  0x558355ada449
#7  0x7f3fa49c709a
#5  0x55f313031a63
#7  0x7f03a160909a
#8  0x5617a1ffe449
#9  0xffffffffffffffff
#9  0xffffffffffffffff
#8  0x55c257e8e449
#7  0x7fb70b43609a
#5  0x55e6f2b7aa63
#4  0x55f9d517c560
#7  0x7f788498409a
#8  0x561ab742a449
#8  0x55a8f5064449
#6  0x5592bc9b740e
#5  0x55e685596a63
#7  0x7f68174c509a
#6  0x55997bf3d40e
#9  0xffffffffffffffff
#8  0x55605c4d3449
#8  0x558fcf566449
#9  0xffffffffffffffff
#8  0x55671dd2f449
#9  0xffffffffffffffff
#8  0x556c22fb0449
#6  0x55e6f2b6d40e
#5  0x55f9d5188a63
#8  0x557ef83b1449
#9  0xffffffffffffffff
#9  0xffffffffffffffff
#7  0x7f0c5752f09a
#6  0x55e68558940e
#8  0x56051ecb0449
#7  0x7f9e749d409a
#9  0xffffffffffffffff
#9  0xffffffffffffffff
#9  0xffffffffffffffff
#9  0xffffffffffffffff
#8  0x56254b3d9449
#6  0x55f31302440e
#0  0x7f8feae808da
#8  0x55b20841d449
#9  0xffffffffffffffff
#9  0xffffffffffffffff
#7  0x7f73aafc909a
#6  0x55f9d517b40e
#9  0xffffffffffffffff
#8  0x5592bc9b7449
#7  0x7ff82a76309a
#9  0xffffffffffffffff
#8  0x55997bf3d449
#9  0xffffffffffffffff
#7  0x7fceaa2cd09a
#1  0x7f8feae7fae3
#9  0xffffffffffffffff
#9  0xffffffffffffffff
#8  0x55e685589449
#9  0xffffffffffffffff
#8  0x55f313024449
#2  0x7f8feaad783f
#8  0x55e6f2b6d449
#7  0x7f60f5e0c09a
#9  0xffffffffffffffff
#8  0x55f9d517b449
#9  0xffffffffffffffff
#9  0xffffffffffffffff
#3  0x7f8feabfcb0d
#4  0x55751523e560
#9  0xffffffffffffffff
#5  0x55751524aa63
#6  0x55751523d40e
#7  0x7f8feaac409a
#8  0x55751523d449
#9  0xffffffffffffffff
#0  0x7f437ef1a8da
#1  0x7f437ef19ae3
#2  0x7f437eb7183f
#3  0x7f437ec96b0d
#4  0x55e0f6f62560
#5  0x55e0f6f6ea63
#6  0x55e0f6f6140e
#7  0x7f437eb5e09a
#8  0x55e0f6f61449
#9  0xffffffffffffffff
#0  0x7ffaecf858da
#1  0x7ffaecf84ae3
#2  0x7ffaecbdc83f
#3  0x7ffaecd01b0d
#4  0x55ec7b061560
#5  0x55ec7b06da63
#6  0x55ec7b06040e
#7  0x7ffaecbc909a
#8  0x55ec7b060449
#9  0xffffffffffffffff
--------------------------------------------------------------------------
mpirun noticed that process rank 31 with PID 10054 on node 10.128.0.61 exited on signal 11 (Segmentation fault).
--------------------------------------------------------------------------
